{
  "content": [
    {
      "id": "b2505f97-3001-4af5-8f29-fa16061c2bf6",
      "entityStatus": "Default",
      "type": null,
      "format": "Db",
      "entityName": "s505z0kbhv8j",
      "entityTitle": "数据目录新闻",
      "markMistake": null,
      "node": null,
      "content": null,
      "relation": {
        "objectClasses": null,
        "ownEntries": null,
        "referEntries": null
      },
      "resource": {
        "id": "99d4986c-f34e-40f9-8e3b-a6055c3038ec",
        "entityStatus": "Default",
        "type": null,
        "format": "Db",
        "entityName": null,
        "entityTitle": null,
        "values": null,
        "resId": null,
        "resTitle": "数据目录新闻",
        "mdId": "1k1r7knpv7mud",
        "entityKey": "SJKCS:test:news",
        "summary": null,
        "idRel": "entryResources/99d4986c-f34e-40f9-8e3b-a6055c3038ec"
      },
      "biz": {
        "currentState": "Generated",
        "previousState": null,
        "transition": null,
        "publishTime": null,
        "createTime": "2018-07-02T02:18:06.884+0000"
      },
      "tags": null,
      "catalogs": null,
      "useObjectPackage": null,
      "idRel": "entrys/b2505f97-3001-4af5-8f29-fa16061c2bf6"
    },
    {
      "id": "8715f25d-e3f2-45d9-bcbb-758e6c33c32d",
      "entityStatus": "Default",
      "type": null,
      "format": "Db",
      "entityName": "u7okdlxj262f",
      "entityTitle": "房屋登记信息(演示)",
      "markMistake": null,
      "node": null,
      "content": null,
      "relation": {
        "objectClasses": null,
        "ownEntries": null,
        "referEntries": null
      },
      "resource": {
        "id": "f376d8b8-4338-43b6-a108-58ab5d3fc14a",
        "entityStatus": "Default",
        "type": null,
        "format": "Db",
        "entityName": null,
        "entityTitle": null,
        "values": null,
        "resId": null,
        "resTitle": "房屋登记信息(演示)",
        "mdId": "1jezd0cx6hlpw",
        "entityKey": "SJKCS:test:FWDJXXB",
        "summary": null,
        "idRel": "entryResources/f376d8b8-4338-43b6-a108-58ab5d3fc14a"
      },
      "biz": {
        "currentState": "Generated",
        "previousState": null,
        "transition": null,
        "publishTime": null,
        "createTime": "2018-07-02T02:13:38.946+0000"
      },
      "tags": null,
      "catalogs": null,
      "useObjectPackage": null,
      "idRel": "entrys/8715f25d-e3f2-45d9-bcbb-758e6c33c32d"
    },
    {
      "id": "f6699ce6-5884-4ec9-ae41-211519cd0df3",
      "entityStatus": "Default",
      "type": "Dataset",
      "format": "Db",
      "entityName": "vf6fwslqta2c",
      "entityTitle": "市水资源费征收标准信息",
      "markMistake": null,
      "node": null,
      "content": null,
      "relation": {
        "objectClasses": null,
        "ownEntries": null,
        "referEntries": null
      },
      "resource": {
        "id": "e00f02b7-56ed-4172-81ee-21f99eb7d20e",
        "entityStatus": "Default",
        "type": "Dataset",
        "format": "Db",
        "entityName": null,
        "entityTitle": null,
        "values": null,
        "resId": "tofmepxk0uw1",
        "resTitle": "市水资源费征收标准信息",
        "mdId": "1hv2pzevi3cq8",
        "entityKey": "SJKCS:test:TB_1H7GD4B48NSQB",
        "summary": " 提供市水资源费征收标准信息，包括执行时间、类型、执行标准、批文号、适用范围等信息。 ",
        "idRel": "entryResources/e00f02b7-56ed-4172-81ee-21f99eb7d20e"
      },
      "biz": {
        "currentState": "Generated",
        "previousState": null,
        "transition": null,
        "publishTime": null,
        "createTime": "2018-06-27T08:36:43.494+0000"
      },
      "tags": null,
      "catalogs": null,
      "useObjectPackage": null,
      "idRel": "entrys/f6699ce6-5884-4ec9-ae41-211519cd0df3"
    },
    {
      "id": "0659f179-a7b2-41ee-bb05-a47b7ca95f80",
      "entityStatus": "Default",
      "type": "Dataset",
      "format": "Db",
      "entityName": "uvhg93xdagyp",
      "entityTitle": "市公交企业基本信息",
      "markMistake": null,
      "node": null,
      "content": null,
      "relation": {
        "objectClasses": null,
        "ownEntries": null,
        "referEntries": null
      },
      "resource": {
        "id": "d0f5a8af-7fb0-42ae-bf4c-1d9718861d8b",
        "entityStatus": "Default",
        "type": "Dataset",
        "format": "Db",
        "entityName": null,
        "entityTitle": null,
        "values": null,
        "resId": "1ji4zrzaepdmh",
        "resTitle": "市公交企业基本信息",
        "mdId": "vbhxfoyff2ar",
        "entityKey": "SJKCS:test:TB_1H7LF52N216WO",
        "summary": " 提供市公交企业基本信息，包括企业名称、电话、地址、企业状态等信息。 ",
        "idRel": "entryResources/d0f5a8af-7fb0-42ae-bf4c-1d9718861d8b"
      },
      "biz": {
        "currentState": "Generated",
        "previousState": null,
        "transition": null,
        "publishTime": null,
        "createTime": "2018-06-27T08:33:12.476+0000"
      },
      "tags": null,
      "catalogs": null,
      "useObjectPackage": null,
      "idRel": "entrys/0659f179-a7b2-41ee-bb05-a47b7ca95f80"
    },
    {
      "id": "3032a6a6-f6e9-4a6d-b4d1-636dca7ec4d1",
      "entityStatus": "Default",
      "type": null,
      "format": "Db",
      "entityName": "qhsw210l0va9",
      "entityTitle": "数据目录新闻",
      "markMistake": null,
      "node": null,
      "content": null,
      "relation": {
        "objectClasses": null,
        "ownEntries": null,
        "referEntries": null
      },
      "resource": {
        "id": "0e1993fa-2331-4544-ad69-98a3dd155a7b",
        "entityStatus": "Default",
        "type": null,
        "format": "Db",
        "entityName": null,
        "entityTitle": null,
        "values": null,
        "resId": null,
        "resTitle": "数据目录新闻",
        "mdId": "urhb9xpwyqsw",
        "entityKey": "SJKCS:test:news",
        "summary": null,
        "idRel": "entryResources/0e1993fa-2331-4544-ad69-98a3dd155a7b"
      },
      "biz": {
        "currentState": "Generated",
        "previousState": null,
        "transition": null,
        "publishTime": null,
        "createTime": "2018-06-27T08:32:21.181+0000"
      },
      "tags": null,
      "catalogs": null,
      "useObjectPackage": null,
      "idRel": "entrys/3032a6a6-f6e9-4a6d-b4d1-636dca7ec4d1"
    },
    {
      "id": "1f1e28a2-4891-4ec8-b7ae-0c6bada071a2",
      "entityStatus": "Default",
      "type": "Dataset",
      "format": "Db",
      "entityName": "1jyouj1svxohe",
      "entityTitle": "市公交企业基本信息",
      "markMistake": null,
      "node": null,
      "content": null,
      "relation": {
        "objectClasses": null,
        "ownEntries": null,
        "referEntries": null
      },
      "resource": {
        "id": "dfeddfaf-d7ff-4cf2-a3b9-49dbf13c669b",
        "entityStatus": "Default",
        "type": "Dataset",
        "format": "Db",
        "entityName": null,
        "entityTitle": null,
        "values": null,
        "resId": "1ji4zrzaepdmh",
        "resTitle": "市公交企业基本信息",
        "mdId": "1hbg13s3qc377",
        "entityKey": "SJKCS:test:TB_1H7LF52N216WO",
        "summary": " 提供市公交企业基本信息，包括企业名称、电话、地址、企业状态等信息。 ",
        "idRel": "entryResources/dfeddfaf-d7ff-4cf2-a3b9-49dbf13c669b"
      },
      "biz": {
        "currentState": "Generated",
        "previousState": null,
        "transition": null,
        "publishTime": null,
        "createTime": "2018-06-20T06:14:01.881+0000"
      },
      "tags": null,
      "catalogs": null,
      "useObjectPackage": null,
      "idRel": "entrys/1f1e28a2-4891-4ec8-b7ae-0c6bada071a2"
    },
    {
      "id": "465772ca-bde6-452a-a9fc-5be58d663c49",
      "entityStatus": "Default",
      "type": null,
      "format": "Db",
      "entityName": null,
      "entityTitle": null,
      "markMistake": null,
      "node": null,
      "content": null,
      "relation": {
        "objectClasses": null,
        "ownEntries": null,
        "referEntries": null
      },
      "resource": {
        "id": "922913e7-34ba-4636-b3b9-3af8a705a7e5",
        "entityStatus": "Default",
        "type": null,
        "format": "Db",
        "entityName": null,
        "entityTitle": null,
        "values": null,
        "resId": null,
        "resTitle": "数据目录新闻",
        "mdId": "1h7lxui9mo46x",
        "entityKey": "SJKCS:test:news",
        "summary": null,
        "idRel": "entryResources/922913e7-34ba-4636-b3b9-3af8a705a7e5"
      },
      "biz": {
        "currentState": "Generated",
        "previousState": null,
        "transition": null,
        "publishTime": null,
        "createTime": "2018-06-20T05:47:03.025+0000"
      },
      "tags": null,
      "catalogs": null,
      "useObjectPackage": null,
      "idRel": "entrys/465772ca-bde6-452a-a9fc-5be58d663c49"
    },
    {
      "id": "6196c339-6684-476d-85ad-e49346c4cc3b",
      "entityStatus": "Default",
      "type": null,
      "format": "Db",
      "entityName": null,
      "entityTitle": null,
      "markMistake": null,
      "node": null,
      "content": null,
      "relation": {
        "objectClasses": null,
        "ownEntries": null,
        "referEntries": null
      },
      "resource": {
        "id": "adb705f2-539b-4dac-a97f-2c88f0151cba",
        "entityStatus": "Default",
        "type": null,
        "format": "Db",
        "entityName": null,
        "entityTitle": null,
        "values": null,
        "resId": null,
        "resTitle": "数据目录新闻",
        "mdId": "s4pkccez6jao",
        "entityKey": "SJKCS:test:news",
        "summary": null,
        "idRel": "entryResources/adb705f2-539b-4dac-a97f-2c88f0151cba"
      },
      "biz": {
        "currentState": "Generated",
        "previousState": null,
        "transition": null,
        "publishTime": null,
        "createTime": "2018-06-20T05:44:44.339+0000"
      },
      "tags": null,
      "catalogs": null,
      "useObjectPackage": null,
      "idRel": "entrys/6196c339-6684-476d-85ad-e49346c4cc3b"
    },
    {
      "id": "ab57c071-5d34-42e6-b418-05d5d536e42d",
      "entityStatus": "Default",
      "type": null,
      "format": "Db",
      "entityName": null,
      "entityTitle": null,
      "markMistake": null,
      "node": null,
      "content": null,
      "relation": {
        "objectClasses": null,
        "ownEntries": null,
        "referEntries": null
      },
      "resource": {
        "id": "df2b0604-83e5-4f04-a194-d1884b67cd5f",
        "entityStatus": "Default",
        "type": null,
        "format": "Db",
        "entityName": null,
        "entityTitle": null,
        "values": null,
        "resId": null,
        "resTitle": "数据目录新闻",
        "mdId": "1iusntc7gvsxh",
        "entityKey": "SJKCS:test:news",
        "summary": null,
        "idRel": "entryResources/df2b0604-83e5-4f04-a194-d1884b67cd5f"
      },
      "biz": {
        "currentState": "Generated",
        "previousState": null,
        "transition": null,
        "publishTime": null,
        "createTime": "2018-06-20T02:44:06.430+0000"
      },
      "tags": null,
      "catalogs": null,
      "useObjectPackage": null,
      "idRel": "entrys/ab57c071-5d34-42e6-b418-05d5d536e42d"
    },
    {
      "id": "301a8cac-5b5d-4437-ba8d-574470c3be29",
      "entityStatus": "Default",
      "type": null,
      "format": "Db",
      "entityName": null,
      "entityTitle": null,
      "markMistake": null,
      "node": null,
      "content": null,
      "relation": {
        "objectClasses": null,
        "ownEntries": null,
        "referEntries": null
      },
      "resource": {
        "id": "aa93f24c-ec3c-424c-9489-b34239e28e0b",
        "entityStatus": "Default",
        "type": null,
        "format": "Db",
        "entityName": null,
        "entityTitle": null,
        "values": null,
        "resId": null,
        "resTitle": "数据目录新闻",
        "mdId": "qhnt94ux1a2a",
        "entityKey": "SJKCS:test:news",
        "summary": null,
        "idRel": "entryResources/aa93f24c-ec3c-424c-9489-b34239e28e0b"
      },
      "biz": {
        "currentState": "Generated",
        "previousState": null,
        "transition": null,
        "publishTime": null,
        "createTime": "2018-06-20T02:42:30.790+0000"
      },
      "tags": null,
      "catalogs": null,
      "useObjectPackage": null,
      "idRel": "entrys/301a8cac-5b5d-4437-ba8d-574470c3be29"
    }
  ],
  "last": false,
  "totalElements": 14,
  "totalPages": 2,
  "size": 10,
  "number": 0,
  "sort": [
    {
      "direction": "DESC",
      "property": "biz.createTime",
      "ignoreCase": false,
      "nullHandling": "NATIVE",
      "ascending": false,
      "descending": true
    }
  ],
  "first": true,
  "numberOfElements": 10
}