{
  "links" : [ {
    "rel" : "first",
    "href" : "http://center/ap/api/services?page=0&size=25"
  }, {
    "rel" : "self",
    "href" : "http://center/ap/api/services{&sort}"
  }, {
    "rel" : "next",
    "href" : "http://center/ap/api/services?page=1&size=25"
  }, {
    "rel" : "last",
    "href" : "http://center/ap/api/services?page=4&size=25"
  }, {
    "rel" : "profile",
    "href" : "http://center/ap/api/profile/services"
  } ],
  "content" : [ {
    "qualified" : "ENTRY",
    "name" : "GAJCLDJXX",
    "title" : "公安局车辆登记信息:目录信息服务",
    "description" : null,
    "id" : "37684e0e-adc8-40f6-9fee-e594955228c8",
    "type" : null,
    "configuration" : null,
    "qname" : "ENTRY:GAJCLDJXX",
    "content" : [ ],
    "links" : [ {
      "rel" : "self",
      "href" : "http://center/ap/api/services/37684e0e-adc8-40f6-9fee-e594955228c8"
    }, {
      "rel" : "service",
      "href" : "http://center/ap/api/services/37684e0e-adc8-40f6-9fee-e594955228c8"
    }, {
      "rel" : "entity",
      "href" : "http://center/ap/api/services/37684e0e-adc8-40f6-9fee-e594955228c8/entity"
    }, {
      "rel" : "function",
      "href" : "http://center/ap/api/services/37684e0e-adc8-40f6-9fee-e594955228c8/function"
    } ]
  }, {
    "qualified" : "ENTRY_DATASET",
    "name" : "GAJCLDJXX",
    "title" : "公安局车辆登记信息:目录数据集服务",
    "description" : null,
    "id" : "1b3306a4-babc-44a2-931b-2c5257fcb9c0",
    "type" : null,
    "configuration" : null,
    "qname" : "ENTRY_DATASET:GAJCLDJXX",
    "content" : [ ],
    "links" : [ {
      "rel" : "self",
      "href" : "http://center/ap/api/services/1b3306a4-babc-44a2-931b-2c5257fcb9c0"
    }, {
      "rel" : "service",
      "href" : "http://center/ap/api/services/1b3306a4-babc-44a2-931b-2c5257fcb9c0"
    }, {
      "rel" : "entity",
      "href" : "http://center/ap/api/services/1b3306a4-babc-44a2-931b-2c5257fcb9c0/entity"
    }, {
      "rel" : "function",
      "href" : "http://center/ap/api/services/1b3306a4-babc-44a2-931b-2c5257fcb9c0/function"
    } ]
  }, {
    "qualified" : "ENTRY_RESOURCE",
    "name" : "GAJCLDJXX",
    "title" : "公安局车辆登记信息:目录资源服务",
    "description" : null,
    "id" : "75d96fda-46e8-4743-8d88-2c67ffe6c4cb",
    "type" : null,
    "configuration" : null,
    "qname" : "ENTRY_RESOURCE:GAJCLDJXX",
    "content" : [ ],
    "links" : [ {
      "rel" : "self",
      "href" : "http://center/ap/api/services/75d96fda-46e8-4743-8d88-2c67ffe6c4cb"
    }, {
      "rel" : "service",
      "href" : "http://center/ap/api/services/75d96fda-46e8-4743-8d88-2c67ffe6c4cb"
    }, {
      "rel" : "entity",
      "href" : "http://center/ap/api/services/75d96fda-46e8-4743-8d88-2c67ffe6c4cb/entity"
    }, {
      "rel" : "function",
      "href" : "http://center/ap/api/services/75d96fda-46e8-4743-8d88-2c67ffe6c4cb/function"
    } ]
  }, {
    "qualified" : "RESOURCE",
    "name" : "GAJCLDJXX",
    "title" : "公安局车辆登记信息:资源服务",
    "description" : null,
    "id" : "72bb26a5-656f-4219-8eb5-8500cc7eb420",
    "type" : null,
    "configuration" : null,
    "qname" : "RESOURCE:GAJCLDJXX",
    "content" : [ ],
    "links" : [ {
      "rel" : "self",
      "href" : "http://center/ap/api/services/72bb26a5-656f-4219-8eb5-8500cc7eb420"
    }, {
      "rel" : "service",
      "href" : "http://center/ap/api/services/72bb26a5-656f-4219-8eb5-8500cc7eb420"
    }, {
      "rel" : "entity",
      "href" : "http://center/ap/api/services/72bb26a5-656f-4219-8eb5-8500cc7eb420/entity"
    }, {
      "rel" : "function",
      "href" : "http://center/ap/api/services/72bb26a5-656f-4219-8eb5-8500cc7eb420/function"
    } ]
  }, {
    "qualified" : "ENTITY",
    "name" : "GAJCLDJXX",
    "title" : "公安局车辆登记信息:资源内容服务",
    "description" : null,
    "id" : "b3bc4dd3-1707-47f0-9f10-fb43f1dc3d84",
    "type" : null,
    "configuration" : null,
    "qname" : "ENTITY:GAJCLDJXX",
    "content" : [ ],
    "links" : [ {
      "rel" : "self",
      "href" : "http://center/ap/api/services/b3bc4dd3-1707-47f0-9f10-fb43f1dc3d84"
    }, {
      "rel" : "service",
      "href" : "http://center/ap/api/services/b3bc4dd3-1707-47f0-9f10-fb43f1dc3d84"
    }, {
      "rel" : "entity",
      "href" : "http://center/ap/api/services/b3bc4dd3-1707-47f0-9f10-fb43f1dc3d84/entity"
    }, {
      "rel" : "function",
      "href" : "http://center/ap/api/services/b3bc4dd3-1707-47f0-9f10-fb43f1dc3d84/function"
    } ]
  }, {
    "qualified" : "ENTRY",
    "name" : "ZWFWSXSQCLXX",
    "title" : "政务服务事项申请材料信息:目录信息服务",
    "description" : null,
    "id" : "9d74538b-3544-4ffb-b99d-a9becc024ac6",
    "type" : null,
    "configuration" : null,
    "qname" : "ENTRY:ZWFWSXSQCLXX",
    "content" : [ ],
    "links" : [ {
      "rel" : "self",
      "href" : "http://center/ap/api/services/9d74538b-3544-4ffb-b99d-a9becc024ac6"
    }, {
      "rel" : "service",
      "href" : "http://center/ap/api/services/9d74538b-3544-4ffb-b99d-a9becc024ac6"
    }, {
      "rel" : "entity",
      "href" : "http://center/ap/api/services/9d74538b-3544-4ffb-b99d-a9becc024ac6/entity"
    }, {
      "rel" : "function",
      "href" : "http://center/ap/api/services/9d74538b-3544-4ffb-b99d-a9becc024ac6/function"
    } ]
  }, {
    "qualified" : "ENTRY_DATASET",
    "name" : "ZWFWSXSQCLXX",
    "title" : "政务服务事项申请材料信息:目录数据集服务",
    "description" : null,
    "id" : "9ba42712-e629-4c5a-9e9e-8fd6a828aa64",
    "type" : null,
    "configuration" : null,
    "qname" : "ENTRY_DATASET:ZWFWSXSQCLXX",
    "content" : [ ],
    "links" : [ {
      "rel" : "self",
      "href" : "http://center/ap/api/services/9ba42712-e629-4c5a-9e9e-8fd6a828aa64"
    }, {
      "rel" : "service",
      "href" : "http://center/ap/api/services/9ba42712-e629-4c5a-9e9e-8fd6a828aa64"
    }, {
      "rel" : "entity",
      "href" : "http://center/ap/api/services/9ba42712-e629-4c5a-9e9e-8fd6a828aa64/entity"
    }, {
      "rel" : "function",
      "href" : "http://center/ap/api/services/9ba42712-e629-4c5a-9e9e-8fd6a828aa64/function"
    } ]
  }, {
    "qualified" : "ENTRY_RESOURCE",
    "name" : "ZWFWSXSQCLXX",
    "title" : "政务服务事项申请材料信息:目录资源服务",
    "description" : null,
    "id" : "d4417e5d-9193-4ab5-bd4a-bd8dc2e2beb3",
    "type" : null,
    "configuration" : null,
    "qname" : "ENTRY_RESOURCE:ZWFWSXSQCLXX",
    "content" : [ ],
    "links" : [ {
      "rel" : "self",
      "href" : "http://center/ap/api/services/d4417e5d-9193-4ab5-bd4a-bd8dc2e2beb3"
    }, {
      "rel" : "service",
      "href" : "http://center/ap/api/services/d4417e5d-9193-4ab5-bd4a-bd8dc2e2beb3"
    }, {
      "rel" : "entity",
      "href" : "http://center/ap/api/services/d4417e5d-9193-4ab5-bd4a-bd8dc2e2beb3/entity"
    }, {
      "rel" : "function",
      "href" : "http://center/ap/api/services/d4417e5d-9193-4ab5-bd4a-bd8dc2e2beb3/function"
    } ]
  }, {
    "qualified" : "RESOURCE",
    "name" : "ZWFWSXSQCLXX",
    "title" : "政务服务事项申请材料信息:资源服务",
    "description" : null,
    "id" : "2bef2c19-c230-463b-a775-1d30286839e0",
    "type" : null,
    "configuration" : null,
    "qname" : "RESOURCE:ZWFWSXSQCLXX",
    "content" : [ ],
    "links" : [ {
      "rel" : "self",
      "href" : "http://center/ap/api/services/2bef2c19-c230-463b-a775-1d30286839e0"
    }, {
      "rel" : "service",
      "href" : "http://center/ap/api/services/2bef2c19-c230-463b-a775-1d30286839e0"
    }, {
      "rel" : "entity",
      "href" : "http://center/ap/api/services/2bef2c19-c230-463b-a775-1d30286839e0/entity"
    }, {
      "rel" : "function",
      "href" : "http://center/ap/api/services/2bef2c19-c230-463b-a775-1d30286839e0/function"
    } ]
  }, {
    "qualified" : "ENTITY",
    "name" : "ZWFWSXSQCLXX",
    "title" : "政务服务事项申请材料信息:资源内容服务",
    "description" : null,
    "id" : "1df6d2a4-3731-4055-9bad-3a4fff9abb17",
    "type" : null,
    "configuration" : null,
    "qname" : "ENTITY:ZWFWSXSQCLXX",
    "content" : [ ],
    "links" : [ {
      "rel" : "self",
      "href" : "http://center/ap/api/services/1df6d2a4-3731-4055-9bad-3a4fff9abb17"
    }, {
      "rel" : "service",
      "href" : "http://center/ap/api/services/1df6d2a4-3731-4055-9bad-3a4fff9abb17"
    }, {
      "rel" : "entity",
      "href" : "http://center/ap/api/services/1df6d2a4-3731-4055-9bad-3a4fff9abb17/entity"
    }, {
      "rel" : "function",
      "href" : "http://center/ap/api/services/1df6d2a4-3731-4055-9bad-3a4fff9abb17/function"
    } ]
  }, {
    "qualified" : "ENTRY",
    "name" : "RSJSBCBJFXX",
    "title" : "人社局社保参保缴费信息:目录信息服务",
    "description" : null,
    "id" : "8b107364-de7a-4cec-a4d9-a6dd4814778e",
    "type" : null,
    "configuration" : null,
    "qname" : "ENTRY:RSJSBCBJFXX",
    "content" : [ ],
    "links" : [ {
      "rel" : "self",
      "href" : "http://center/ap/api/services/8b107364-de7a-4cec-a4d9-a6dd4814778e"
    }, {
      "rel" : "service",
      "href" : "http://center/ap/api/services/8b107364-de7a-4cec-a4d9-a6dd4814778e"
    }, {
      "rel" : "entity",
      "href" : "http://center/ap/api/services/8b107364-de7a-4cec-a4d9-a6dd4814778e/entity"
    }, {
      "rel" : "function",
      "href" : "http://center/ap/api/services/8b107364-de7a-4cec-a4d9-a6dd4814778e/function"
    } ]
  }, {
    "qualified" : "ENTRY_DATASET",
    "name" : "RSJSBCBJFXX",
    "title" : "人社局社保参保缴费信息:目录数据集服务",
    "description" : null,
    "id" : "fcc64c89-654c-4699-bf0c-2a25bec935d1",
    "type" : null,
    "configuration" : null,
    "qname" : "ENTRY_DATASET:RSJSBCBJFXX",
    "content" : [ ],
    "links" : [ {
      "rel" : "self",
      "href" : "http://center/ap/api/services/fcc64c89-654c-4699-bf0c-2a25bec935d1"
    }, {
      "rel" : "service",
      "href" : "http://center/ap/api/services/fcc64c89-654c-4699-bf0c-2a25bec935d1"
    }, {
      "rel" : "entity",
      "href" : "http://center/ap/api/services/fcc64c89-654c-4699-bf0c-2a25bec935d1/entity"
    }, {
      "rel" : "function",
      "href" : "http://center/ap/api/services/fcc64c89-654c-4699-bf0c-2a25bec935d1/function"
    } ]
  }, {
    "qualified" : "ENTRY_RESOURCE",
    "name" : "RSJSBCBJFXX",
    "title" : "人社局社保参保缴费信息:目录资源服务",
    "description" : null,
    "id" : "64cea989-5b26-4d49-b066-0236fbeed724",
    "type" : null,
    "configuration" : null,
    "qname" : "ENTRY_RESOURCE:RSJSBCBJFXX",
    "content" : [ ],
    "links" : [ {
      "rel" : "self",
      "href" : "http://center/ap/api/services/64cea989-5b26-4d49-b066-0236fbeed724"
    }, {
      "rel" : "service",
      "href" : "http://center/ap/api/services/64cea989-5b26-4d49-b066-0236fbeed724"
    }, {
      "rel" : "entity",
      "href" : "http://center/ap/api/services/64cea989-5b26-4d49-b066-0236fbeed724/entity"
    }, {
      "rel" : "function",
      "href" : "http://center/ap/api/services/64cea989-5b26-4d49-b066-0236fbeed724/function"
    } ]
  }, {
    "qualified" : "RESOURCE",
    "name" : "RSJSBCBJFXX",
    "title" : "人社局社保参保缴费信息:资源服务",
    "description" : null,
    "id" : "8afce665-7280-42ea-ba4e-f568c62f2540",
    "type" : null,
    "configuration" : null,
    "qname" : "RESOURCE:RSJSBCBJFXX",
    "content" : [ ],
    "links" : [ {
      "rel" : "self",
      "href" : "http://center/ap/api/services/8afce665-7280-42ea-ba4e-f568c62f2540"
    }, {
      "rel" : "service",
      "href" : "http://center/ap/api/services/8afce665-7280-42ea-ba4e-f568c62f2540"
    }, {
      "rel" : "entity",
      "href" : "http://center/ap/api/services/8afce665-7280-42ea-ba4e-f568c62f2540/entity"
    }, {
      "rel" : "function",
      "href" : "http://center/ap/api/services/8afce665-7280-42ea-ba4e-f568c62f2540/function"
    } ]
  }, {
    "qualified" : "ENTITY",
    "name" : "RSJSBCBJFXX",
    "title" : "人社局社保参保缴费信息:资源内容服务",
    "description" : null,
    "id" : "5d9e7785-dff5-4cff-aa49-7803bd55ed7b",
    "type" : null,
    "configuration" : null,
    "qname" : "ENTITY:RSJSBCBJFXX",
    "content" : [ ],
    "links" : [ {
      "rel" : "self",
      "href" : "http://center/ap/api/services/5d9e7785-dff5-4cff-aa49-7803bd55ed7b"
    }, {
      "rel" : "service",
      "href" : "http://center/ap/api/services/5d9e7785-dff5-4cff-aa49-7803bd55ed7b"
    }, {
      "rel" : "entity",
      "href" : "http://center/ap/api/services/5d9e7785-dff5-4cff-aa49-7803bd55ed7b/entity"
    }, {
      "rel" : "function",
      "href" : "http://center/ap/api/services/5d9e7785-dff5-4cff-aa49-7803bd55ed7b/function"
    } ]
  }, {
    "qualified" : "ENTRY",
    "name" : "ZWFWSXXX",
    "title" : "政务服务事项信息:目录信息服务",
    "description" : null,
    "id" : "85058202-0591-4b41-bf61-5074b9c4b78a",
    "type" : null,
    "configuration" : null,
    "qname" : "ENTRY:ZWFWSXXX",
    "content" : [ ],
    "links" : [ {
      "rel" : "self",
      "href" : "http://center/ap/api/services/85058202-0591-4b41-bf61-5074b9c4b78a"
    }, {
      "rel" : "service",
      "href" : "http://center/ap/api/services/85058202-0591-4b41-bf61-5074b9c4b78a"
    }, {
      "rel" : "entity",
      "href" : "http://center/ap/api/services/85058202-0591-4b41-bf61-5074b9c4b78a/entity"
    }, {
      "rel" : "function",
      "href" : "http://center/ap/api/services/85058202-0591-4b41-bf61-5074b9c4b78a/function"
    } ]
  }, {
    "qualified" : "ENTRY_DATASET",
    "name" : "ZWFWSXXX",
    "title" : "政务服务事项信息:目录数据集服务",
    "description" : null,
    "id" : "4b217b6c-ad42-4721-aca1-d77aa98ce779",
    "type" : null,
    "configuration" : null,
    "qname" : "ENTRY_DATASET:ZWFWSXXX",
    "content" : [ ],
    "links" : [ {
      "rel" : "self",
      "href" : "http://center/ap/api/services/4b217b6c-ad42-4721-aca1-d77aa98ce779"
    }, {
      "rel" : "service",
      "href" : "http://center/ap/api/services/4b217b6c-ad42-4721-aca1-d77aa98ce779"
    }, {
      "rel" : "entity",
      "href" : "http://center/ap/api/services/4b217b6c-ad42-4721-aca1-d77aa98ce779/entity"
    }, {
      "rel" : "function",
      "href" : "http://center/ap/api/services/4b217b6c-ad42-4721-aca1-d77aa98ce779/function"
    } ]
  }, {
    "qualified" : "ENTRY_RESOURCE",
    "name" : "ZWFWSXXX",
    "title" : "政务服务事项信息:目录资源服务",
    "description" : null,
    "id" : "4aa848a7-de74-4150-a4e9-4efc7f24e42f",
    "type" : null,
    "configuration" : null,
    "qname" : "ENTRY_RESOURCE:ZWFWSXXX",
    "content" : [ ],
    "links" : [ {
      "rel" : "self",
      "href" : "http://center/ap/api/services/4aa848a7-de74-4150-a4e9-4efc7f24e42f"
    }, {
      "rel" : "service",
      "href" : "http://center/ap/api/services/4aa848a7-de74-4150-a4e9-4efc7f24e42f"
    }, {
      "rel" : "entity",
      "href" : "http://center/ap/api/services/4aa848a7-de74-4150-a4e9-4efc7f24e42f/entity"
    }, {
      "rel" : "function",
      "href" : "http://center/ap/api/services/4aa848a7-de74-4150-a4e9-4efc7f24e42f/function"
    } ]
  }, {
    "qualified" : "RESOURCE",
    "name" : "ZWFWSXXX",
    "title" : "政务服务事项信息:资源服务",
    "description" : null,
    "id" : "69dcda2c-dd50-4b3c-9b22-c799cdd4b273",
    "type" : null,
    "configuration" : null,
    "qname" : "RESOURCE:ZWFWSXXX",
    "content" : [ ],
    "links" : [ {
      "rel" : "self",
      "href" : "http://center/ap/api/services/69dcda2c-dd50-4b3c-9b22-c799cdd4b273"
    }, {
      "rel" : "service",
      "href" : "http://center/ap/api/services/69dcda2c-dd50-4b3c-9b22-c799cdd4b273"
    }, {
      "rel" : "entity",
      "href" : "http://center/ap/api/services/69dcda2c-dd50-4b3c-9b22-c799cdd4b273/entity"
    }, {
      "rel" : "function",
      "href" : "http://center/ap/api/services/69dcda2c-dd50-4b3c-9b22-c799cdd4b273/function"
    } ]
  }, {
    "qualified" : "ENTITY",
    "name" : "ZWFWSXXX",
    "title" : "政务服务事项信息:资源内容服务",
    "description" : null,
    "id" : "bfdf96aa-c56c-4652-b752-78fa9c05ff45",
    "type" : null,
    "configuration" : null,
    "qname" : "ENTITY:ZWFWSXXX",
    "content" : [ ],
    "links" : [ {
      "rel" : "self",
      "href" : "http://center/ap/api/services/bfdf96aa-c56c-4652-b752-78fa9c05ff45"
    }, {
      "rel" : "service",
      "href" : "http://center/ap/api/services/bfdf96aa-c56c-4652-b752-78fa9c05ff45"
    }, {
      "rel" : "entity",
      "href" : "http://center/ap/api/services/bfdf96aa-c56c-4652-b752-78fa9c05ff45/entity"
    }, {
      "rel" : "function",
      "href" : "http://center/ap/api/services/bfdf96aa-c56c-4652-b752-78fa9c05ff45/function"
    } ]
  }, {
    "qualified" : "ENTRY",
    "name" : "XTFJB",
    "title" : "系统附件表:目录信息服务",
    "description" : null,
    "id" : "aca8e4bb-c287-4fcf-bbb0-0178be44c404",
    "type" : null,
    "configuration" : null,
    "qname" : "ENTRY:XTFJB",
    "content" : [ ],
    "links" : [ {
      "rel" : "self",
      "href" : "http://center/ap/api/services/aca8e4bb-c287-4fcf-bbb0-0178be44c404"
    }, {
      "rel" : "service",
      "href" : "http://center/ap/api/services/aca8e4bb-c287-4fcf-bbb0-0178be44c404"
    }, {
      "rel" : "entity",
      "href" : "http://center/ap/api/services/aca8e4bb-c287-4fcf-bbb0-0178be44c404/entity"
    }, {
      "rel" : "function",
      "href" : "http://center/ap/api/services/aca8e4bb-c287-4fcf-bbb0-0178be44c404/function"
    } ]
  }, {
    "qualified" : "ENTRY_DATASET",
    "name" : "XTFJB",
    "title" : "系统附件表:目录数据集服务",
    "description" : null,
    "id" : "88406b28-db0c-450d-92f0-4b1e0fef8fc9",
    "type" : null,
    "configuration" : null,
    "qname" : "ENTRY_DATASET:XTFJB",
    "content" : [ ],
    "links" : [ {
      "rel" : "self",
      "href" : "http://center/ap/api/services/88406b28-db0c-450d-92f0-4b1e0fef8fc9"
    }, {
      "rel" : "service",
      "href" : "http://center/ap/api/services/88406b28-db0c-450d-92f0-4b1e0fef8fc9"
    }, {
      "rel" : "entity",
      "href" : "http://center/ap/api/services/88406b28-db0c-450d-92f0-4b1e0fef8fc9/entity"
    }, {
      "rel" : "function",
      "href" : "http://center/ap/api/services/88406b28-db0c-450d-92f0-4b1e0fef8fc9/function"
    } ]
  }, {
    "qualified" : "ENTRY_RESOURCE",
    "name" : "XTFJB",
    "title" : "系统附件表:目录资源服务",
    "description" : null,
    "id" : "2df9946c-b386-4d4d-bf48-c726c672b551",
    "type" : null,
    "configuration" : null,
    "qname" : "ENTRY_RESOURCE:XTFJB",
    "content" : [ ],
    "links" : [ {
      "rel" : "self",
      "href" : "http://center/ap/api/services/2df9946c-b386-4d4d-bf48-c726c672b551"
    }, {
      "rel" : "service",
      "href" : "http://center/ap/api/services/2df9946c-b386-4d4d-bf48-c726c672b551"
    }, {
      "rel" : "entity",
      "href" : "http://center/ap/api/services/2df9946c-b386-4d4d-bf48-c726c672b551/entity"
    }, {
      "rel" : "function",
      "href" : "http://center/ap/api/services/2df9946c-b386-4d4d-bf48-c726c672b551/function"
    } ]
  }, {
    "qualified" : "RESOURCE",
    "name" : "XTFJB",
    "title" : "系统附件表:资源服务",
    "description" : null,
    "id" : "12be69d1-ccad-4967-a04d-085bd7434886",
    "type" : null,
    "configuration" : null,
    "qname" : "RESOURCE:XTFJB",
    "content" : [ ],
    "links" : [ {
      "rel" : "self",
      "href" : "http://center/ap/api/services/12be69d1-ccad-4967-a04d-085bd7434886"
    }, {
      "rel" : "service",
      "href" : "http://center/ap/api/services/12be69d1-ccad-4967-a04d-085bd7434886"
    }, {
      "rel" : "entity",
      "href" : "http://center/ap/api/services/12be69d1-ccad-4967-a04d-085bd7434886/entity"
    }, {
      "rel" : "function",
      "href" : "http://center/ap/api/services/12be69d1-ccad-4967-a04d-085bd7434886/function"
    } ]
  }, {
    "qualified" : "ENTITY",
    "name" : "XTFJB",
    "title" : "系统附件表:资源内容服务",
    "description" : null,
    "id" : "97e3615d-51a9-4f3b-8814-e6a5a31bfa91",
    "type" : null,
    "configuration" : null,
    "qname" : "ENTITY:XTFJB",
    "content" : [ ],
    "links" : [ {
      "rel" : "self",
      "href" : "http://center/ap/api/services/97e3615d-51a9-4f3b-8814-e6a5a31bfa91"
    }, {
      "rel" : "service",
      "href" : "http://center/ap/api/services/97e3615d-51a9-4f3b-8814-e6a5a31bfa91"
    }, {
      "rel" : "entity",
      "href" : "http://center/ap/api/services/97e3615d-51a9-4f3b-8814-e6a5a31bfa91/entity"
    }, {
      "rel" : "function",
      "href" : "http://center/ap/api/services/97e3615d-51a9-4f3b-8814-e6a5a31bfa91/function"
    } ]
  } ],
  "page" : {
    "size" : 25,
    "totalElements" : 116,
    "totalPages" : 5,
    "number" : 0
  }
}