{
  "content" : [ {
    "id" : "cb74abfe-95e1-41b6-be8d-d9590f8af05f",
    "entityStatus" : "Default",
    "type" : "Dataset",
    "format" : "Db",
    "markMistake" : true,
    "node" : {
      "_class" : "dcsp.domain.biz.RealmNode",
      "id" : "8addde39-db50-4dc2-be82-4eb533081256",
      "entityStatus" : "Current",
      "ip" : "dcspserver",
      "ports" : { },
      "local" : false,
      "name" : "Demo",
      "title" : "演示节点",
      "memo" : null,
      "code" : "9000",
      "gwPort" : 44010,
      "allocateCode" : "ZH-ZJ001TEST001",
      "region" : {
        "_class" : "dcsp.domain.biz.Region",
        "id" : "a9507a14-0e4c-4561-b27d-1888646200ef",
        "entityStatus" : "Default",
        "level" : 0,
        "path" : "a9507a14-0e4c-4561-b27d-1888646200ef",
        "parent" : null,
        "orders" : 0,
        "name" : "天津市",
        "code" : "TJ",
        "rank" : "Province",
        "parentId" : null,
        "idRel" : "regions/a9507a14-0e4c-4561-b27d-1888646200ef"
      },
      "department" : {
        "_class" : "dcsp.domain.biz.Principal",
        "id" : "0ad8b907-7ea1-48f0-91f6-97d21adb1ab3",
        "entityStatus" : "Default",
        "level" : 0,
        "path" : "0ad8b907-7ea1-48f0-91f6-97d21adb1ab3",
        "parent" : null,
        "orders" : 0,
        "type" : "Department",
        "owner" : [ ],
        "name" : "市政府",
        "displayName" : "市政府",
        "code" : "SZF",
        "region" : {
          "_class" : "dcsp.domain.biz.Region",
          "id" : "a9507a14-0e4c-4561-b27d-1888646200ef",
          "entityStatus" : "Default",
          "level" : 0,
          "path" : "a9507a14-0e4c-4561-b27d-1888646200ef",
          "parent" : null,
          "orders" : 0,
          "name" : "天津市",
          "code" : "TJ",
          "rank" : "Province",
          "parentId" : null,
          "idRel" : "regions/a9507a14-0e4c-4561-b27d-1888646200ef"
        },
        "uuid" : "0ad8b907-7ea1-48f0-91f6-97d21adb1ab3",
        "parentId" : null,
        "idRel" : "principals/0ad8b907-7ea1-48f0-91f6-97d21adb1ab3"
      },
      "nodeOrganizationCode" : "BUMEN",
      "nodeOrganizationName" : "部门名称中文",
      "nodeAddress" : "http://dcspserver",
      "nodeServer" : "http://dcspserver:44010",
      "defaults" : {
        "id" : "236bea4f-3e24-41a3-aefc-bc9ddec2bbc0",
        "entityStatus" : "Default",
        "references" : null,
        "includes" : null,
        "ownerTitle" : null,
        "abstracts" : null,
        "cntAdd" : null,
        "providerCode" : "BUMEN",
        "rpOrgName" : "部门名称中文",
        "entityDesc" : null,
        "resTitle" : null,
        "onLineSrc" : null,
        "entityKey" : null,
        "resId" : null,
        "provideCenter" : null,
        "rpOrgCenter" : null,
        "mdId" : null,
        "cntAddCenter" : null,
        "ownerGroup" : null,
        "bizCode" : null,
        "extraKFTJ" : null,
        "extraGXTJ" : null,
        "serviceURL" : null,
        "uuidResource" : null,
        "uuidEntry" : null,
        "catalog" : null,
        "keyword" : null,
        "catalogGB" : null,
        "catalogHY" : null,
        "catalogSS" : null,
        "contentType" : null,
        "bizType" : null,
        "format" : null,
        "smlx" : null,
        "kflx" : null,
        "gxlx" : null,
        "gxfs" : null,
        "gxzq" : null,
        "serviceType" : null,
        "pubDate" : null,
        "mdDateUpd" : null,
        "publishDate" : null,
        "resTotal" : null,
        "resSize" : null,
        "resTotal2" : null,
        "resSize2" : null,
        "resTotal1" : null,
        "resSize1" : null,
        "ownerNode" : null,
        "ownerRealm" : null,
        "ownerDepartment" : null,
        "generateType" : null,
        "fields" : null,
        "ownerDomain" : null,
        "createTime" : "2017-11-02T08:21:10.895+0000",
        "published" : null,
        "extraAttributes" : null,
        "idRel" : "entryDatas/236bea4f-3e24-41a3-aefc-bc9ddec2bbc0"
      },
      "registered" : true,
      "accessSecureCode" : null,
      "accessPrivateKey" : null,
      "registerPrivateKey" : null,
      "registerPublicKey" : null,
      "idRel" : "realmNodes/8addde39-db50-4dc2-be82-4eb533081256"
    },
    "content" : {
      "datasets" : [ {
        "_class" : "dcsp.drdms.domain.dataset.Dataset",
        "id" : "b5982484-dd29-45ad-848d-e5e027241aa5",
        "entityStatus" : "Default",
        "type" : "Dataset",
        "format" : null,
        "title" : "_TB_UBOME4590TVB",
        "name" : "s4xw1v1zoe2g",
        "dataState" : "None",
        "dataId" : null,
        "memo" : null,
        "fields" : [ {
          "_class" : "dcsp.drdms.domain.dataset.Column",
          "name" : "id",
          "title" : "_id",
          "dataType" : "Text",
          "dataLength" : 0,
          "notNull" : false,
          "require" : false
        }, {
          "_class" : "dcsp.drdms.domain.dataset.Column",
          "name" : "QYMC",
          "title" : "_QYMC",
          "dataType" : "Text",
          "dataLength" : 0,
          "notNull" : false,
          "require" : false
        }, {
          "_class" : "dcsp.drdms.domain.dataset.Column",
          "name" : "SBMC",
          "title" : "_SBMC",
          "dataType" : "Text",
          "dataLength" : 0,
          "notNull" : false,
          "require" : false
        }, {
          "_class" : "dcsp.drdms.domain.dataset.Column",
          "name" : "RDND",
          "title" : "_RDND",
          "dataType" : "Text",
          "dataLength" : 0,
          "notNull" : false,
          "require" : false
        }, {
          "_class" : "dcsp.drdms.domain.dataset.Column",
          "name" : "RDJG",
          "title" : "_RDJG",
          "dataType" : "Text",
          "dataLength" : 0,
          "notNull" : false,
          "require" : false
        } ],
        "data" : null,
        "createTime" : "2017-11-02T10:41:30.665+0000",
        "updateTime" : "2017-11-02T10:41:30.665+0000",
        "changeType" : null,
        "idRel" : "datasets/b5982484-dd29-45ad-848d-e5e027241aa5"
      } ]
    },
    "relation" : {
      "objectClasses" : null,
      "ownEntries" : null,
      "referEntries" : null
    },
    "resource" : {
      "id" : "43af307b-72b0-4a5b-b264-29db00ce5020",
      "entityStatus" : "Default",
      "type" : "Dataset",
      "format" : "Db",
      "values" : {
        "_class" : "dcsp.fl.common.FieldSet",
        "items" : [ {
          "_class" : "dcsp.fl.common.FieldValue",
          "name" : "providerCode",
          "dataType" : "Text",
          "dataLength" : 0,
          "notNull" : false,
          "require" : false,
          "value" : "BUMEN"
        }, {
          "_class" : "dcsp.fl.common.FieldValue",
          "name" : "idRel",
          "dataType" : "Text",
          "dataLength" : 0,
          "notNull" : false,
          "require" : false,
          "value" : "entryDatas/a4025bdc-cb28-4d8a-8975-9706b0732013"
        }, {
          "_class" : "dcsp.fl.common.FieldValue",
          "name" : "rpOrgName",
          "dataType" : "Text",
          "dataLength" : 0,
          "notNull" : false,
          "require" : false,
          "value" : "部门名称中文"
        }, {
          "_class" : "dcsp.fl.common.FieldValue",
          "name" : "contentType",
          "dataType" : "Text",
          "dataLength" : 0,
          "notNull" : false,
          "require" : false,
          "value" : "Dataset"
        }, {
          "_class" : "dcsp.fl.common.FieldValue",
          "name" : "entityKey",
          "dataType" : "Text",
          "dataLength" : 0,
          "notNull" : false,
          "require" : false,
          "value" : "YSSJKC:TEST:TB_UBOME4590TVB"
        }, {
          "_class" : "dcsp.fl.common.FieldValue",
          "name" : "format",
          "dataType" : "Text",
          "dataLength" : 0,
          "notNull" : false,
          "require" : false,
          "value" : "Db"
        }, {
          "_class" : "dcsp.fl.common.FieldValue",
          "name" : "resId",
          "dataType" : "Text",
          "dataLength" : 0,
          "notNull" : false,
          "require" : false,
          "value" : "ZH-ZJ001TEST0019000201711020000"
        }, {
          "_class" : "dcsp.fl.common.FieldValue",
          "name" : "resTitle",
          "dataType" : "Text",
          "dataLength" : 0,
          "notNull" : false,
          "require" : false,
          "value" : "_TB_UBOME4590TVB"
        }, {
          "_class" : "dcsp.fl.common.FieldValue",
          "name" : "createTime",
          "dataType" : "Text",
          "dataLength" : 0,
          "notNull" : false,
          "require" : false,
          "value" : "2017-11-02T10:41:30.665+0000"
        } ]
      },
      "resId" : "ZH-ZJ001TEST0019000201711020000",
      "resTitle" : "_TB_UBOME4590TVB",
      "mdId" : "s4xw1v1zoe2g",
      "entityKey" : "YSSJKC:TEST:TB_UBOME4590TVB",
      "idRel" : "entryResources/43af307b-72b0-4a5b-b264-29db00ce5020"
    },
    "biz" : {
      "currentState" : "Generated",
      "previousState" : null,
      "transition" : null,
      "publishTime" : null,
      "createTime" : "2017-11-02T10:41:31.989+0000"
    },
    "tags" : null,
    "catalog" : null,
    "idRel" : "entrys/cb74abfe-95e1-41b6-be8d-d9590f8af05f"
  } ],
  "last" : false,
  "totalElements" : 546,
  "totalPages" : 22,
  "size" : 25,
  "number" : 0,
  "sort" : null,
  "first" : true,
  "numberOfElements" : 25
}